# ACTS Test Suite Generation: Thu Mar 28 17:28:48 CET 2024
#  '*' represents don't care value 
# Degree of interaction coverage: 2
# Number of parameters: 5
# Maximum number of values per parameter: 3
# Number of configurations: 9
Registrace,Name,Destination,birthdate,Discount
false,NULL,outOfEU,DD.MM.YYYY,Retired
true,NULL,EU,MM/DD/YYYY,discountVoucher
false,NULL,EU,YYYY-MM-DD,Student
true,Letters,outOfEU,DD.MM.YYYY,discountVoucher
false,Letters,outOfEU,MM/DD/YYYY,Student
true,Letters,EU,YYYY-MM-DD,Retired
true,specialChars,EU,DD.MM.YYYY,Student
false,specialChars,outOfEU,MM/DD/YYYY,Retired
false,specialChars,outOfEU,YYYY-MM-DD,discountVoucher
